Data Analyst Skills Test (Health Manager Level 2)
…
Before sub-setting the data, we can see that the majority of patients are white British. This is expected as the data is simulated from real cancer data in the UK. This however, is an important factor to consider when conducting an analysis as this may show potential bias towards certain ethnicities.

# Calculate the n and percent of patients by gender
bysex <- sim_av_patient %>%
  group_by(ETHNICITY, SEX) %>%
  count(ETHNICITY, SEX)

bysex <- bysex %>% group_by(ETHNICITY) %>% mutate(Percent = (n/sum(n) * 100), Patients = "All")
bysex[order(bysex$n, decreasing =T), ]

## # A tibble: 45 x 5
## # Groups:   ETHNICITY [22]
##    ETHNICITY                    SEX         n Percent Patients
##    <fct>                        <fct>   <int>   <dbl> <chr>   
##  1 WHITE BRITISH                FEMALE 886419    50.2 All     
##  2 WHITE BRITISH                MALE   878464    49.8 All     
##  3 <NA>                         FEMALE  99818    58.1 All     
##  4 <NA>                         MALE    72109    41.9 All     
##  5 C ANY OTHER WHITE BACKGROUND FEMALE  37699    56.7 All     
##  6 NOT STATED                   MALE    32289    51.6 All     
##  7 NOT STATED                   FEMALE  30326    48.4 All     
##  8 C ANY OTHER WHITE BACKGROUND MALE    28827    43.3 All     
##  9 S ANY OTHER ETHNIC GROUP     FEMALE  10737    54.0 All     
## 10 WHITE IRISH                  MALE     9841    52.9 All     
## #  with 35 more rows
…
Interestingly we can see that males had the higher proportion of those that were diagnosed with lung cancer. Of these, 70% of asian males were diagnosed with lung cancer, 63% of black males, 68% of mixed males and 60% of other ethnicity.

# Calculate the n and percent of patients by gender
bysex <- lung_cancer_patients_2013 %>%
  group_by(ETHNICITY, SEX) %>%
  count(ETHNICITY, SEX)

bysex <- bysex %>% group_by(ETHNICITY) %>% mutate(Percent = (n/sum(n) * 100), Patients = "All")
bysex[order(bysex$n, decreasing =T), ]

## # A tibble: 40 x 5
## # Groups:   ETHNICITY [20]
##    ETHNICITY                    SEX        n Percent Patients
##    <fct>                        <fct>  <int>   <dbl> <chr>   
##  1 WHITE BRITISH                MALE   16022    52.0 All     
##  2 WHITE BRITISH                FEMALE 14765    48.0 All     
##  3 C ANY OTHER WHITE BACKGROUND MALE     537    55.6 All     
##  4 <NA>                         MALE     436    55.8 All     
##  5 C ANY OTHER WHITE BACKGROUND FEMALE   428    44.4 All     
##  6 NOT STATED                   MALE     385    50.4 All     
##  7 NOT STATED                   FEMALE   379    49.6 All     
##  8 <NA>                         FEMALE   346    44.2 All     
##  9 WHITE IRISH                  FEMALE   191    50.7 All     
## 10 WHITE IRISH                  MALE     186    49.3 All     
## #  with 30 more rows
…
